%YAML 1.1
%TAG !u! tag:unity3d.com,2011:
--- !u!114 &11400000
MonoBehaviour:
  m_ObjectHideFlags: 0
  m_CorrespondingSourceObject: {fileID: 0}
  m_PrefabInstance: {fileID: 0}
  m_PrefabAsset: {fileID: 0}
  m_GameObject: {fileID: 0}
  m_Enabled: 1
  m_EditorHideFlags: 0
  m_Script: {fileID: 11500000, guid: 1aa4c2b46f5931842b09c330062c8f37, type: 3}
  m_Name: GallonMilk
  m_EditorClassIdentifier: 
  Product: {fileID: -8378978191671721805, guid: 33c70e55e6e30404f85c0ee764ebef99,
    type: 3}
  ScanTime: 0.84
