%YAML 1.1
%TAG !u! tag:unity3d.com,2011:
--- !u!1 &6035965263606495161
GameObject:
  m_ObjectHideFlags: 0
  m_CorrespondingSourceObject: {fileID: 0}
  m_PrefabInstance: {fileID: 0}
  m_PrefabAsset: {fileID: 0}
  serializedVersion: 6
  m_Component:
  - component: {fileID: 6035965263606393753}
  - component: {fileID: -6494732803459360858}
  - component: {fileID: -7473537193767175387}
  - component: {fileID: -4001293188899655397}
  m_Layer: 9
  m_Name: cupcake
  m_TagString: Untagged
  m_Icon: {fileID: 0}
  m_NavMeshLayer: 0
  m_StaticEditorFlags: 0
  m_IsActive: 1
--- !u!4 &6035965263606393753
Transform:
  m_ObjectHideFlags: 0
  m_CorrespondingSourceObject: {fileID: 0}
  m_PrefabInstance: {fileID: 0}
  m_PrefabAsset: {fileID: 0}
  m_GameObject: {fileID: 6035965263606495161}
  m_LocalRotation: {x: 0, y: 0, z: 0, w: 1}
  m_LocalPosition: {x: 0, y: 0, z: 0}
  m_LocalScale: {x: 0.3, y: 0.3, z: 0.3}
  m_Children:
  - {fileID: 5509910241742933372}
  m_Father: {fileID: 0}
  m_RootOrder: 0
  m_LocalEulerAnglesHint: {x: 0, y: 0, z: 0}
--- !u!114 &-6494732803459360858
MonoBehaviour:
  m_ObjectHideFlags: 0
  m_CorrespondingSourceObject: {fileID: 0}
  m_PrefabInstance: {fileID: 0}
  m_PrefabAsset: {fileID: 0}
  m_GameObject: {fileID: 6035965263606495161}
  m_Enabled: 1
  m_EditorHideFlags: 0
  m_Script: {fileID: 11500000, guid: e1a167d4f7505094094ebccf693ae2f3, type: 3}
  m_Name: 
  m_EditorClassIdentifier: 
--- !u!65 &-7473537193767175387
BoxCollider:
  m_ObjectHideFlags: 0
  m_CorrespondingSourceObject: {fileID: 0}
  m_PrefabInstance: {fileID: 0}
  m_PrefabAsset: {fileID: 0}
  m_GameObject: {fileID: 6035965263606495161}
  m_Material: {fileID: 0}
  m_IsTrigger: 0
  m_Enabled: 1
  serializedVersion: 2
  m_Size: {x: 3.4932811, y: 4.2098784, z: 3.7378755}
  m_Center: {x: 0.0033001103, y: 2.37, z: 0.014871359}
--- !u!54 &-4001293188899655397
Rigidbody:
  m_ObjectHideFlags: 0
  m_CorrespondingSourceObject: {fileID: 0}
  m_PrefabInstance: {fileID: 0}
  m_PrefabAsset: {fileID: 0}
  m_GameObject: {fileID: 6035965263606495161}
  serializedVersion: 2
  m_Mass: 1
  m_Drag: 0
  m_AngularDrag: 0.05
  m_UseGravity: 0
  m_IsKinematic: 1
  m_Interpolate: 0
  m_Constraints: 0
  m_CollisionDetection: 0
--- !u!1001 &652343420840732262
PrefabInstance:
  m_ObjectHideFlags: 0
  serializedVersion: 2
  m_Modification:
    m_TransformParent: {fileID: 6035965263606393753}
    m_Modifications:
    - target: {fileID: -4216859302048453862, guid: 18a0ecb4e3858424ebf98cbf9e0ff486,
        type: 3}
      propertyPath: m_LocalPosition.x
      value: -0.082342
      objectReference: {fileID: 0}
    - target: {fileID: -4216859302048453862, guid: 18a0ecb4e3858424ebf98cbf9e0ff486,
        type: 3}
      propertyPath: m_LocalPosition.y
      value: 0.84
      objectReference: {fileID: 0}
    - target: {fileID: -4216859302048453862, guid: 18a0ecb4e3858424ebf98cbf9e0ff486,
        type: 3}
      propertyPath: m_LocalPosition.z
      value: 0.0092303
      objectReference: {fileID: 0}
    - target: {fileID: -4216859302048453862, guid: 18a0ecb4e3858424ebf98cbf9e0ff486,
        type: 3}
      propertyPath: m_LocalRotation.x
      value: -0.7071068
      objectReference: {fileID: 0}
    - target: {fileID: -4216859302048453862, guid: 18a0ecb4e3858424ebf98cbf9e0ff486,
        type: 3}
      propertyPath: m_LocalRotation.y
      value: 0
      objectReference: {fileID: 0}
    - target: {fileID: -4216859302048453862, guid: 18a0ecb4e3858424ebf98cbf9e0ff486,
        type: 3}
      propertyPath: m_LocalRotation.z
      value: -0
      objectReference: {fileID: 0}
    - target: {fileID: -4216859302048453862, guid: 18a0ecb4e3858424ebf98cbf9e0ff486,
        type: 3}
      propertyPath: m_LocalRotation.w
      value: 0.7071067
      objectReference: {fileID: 0}
    - target: {fileID: -4216859302048453862, guid: 18a0ecb4e3858424ebf98cbf9e0ff486,
        type: 3}
      propertyPath: m_RootOrder
      value: 0
      objectReference: {fileID: 0}
    - target: {fileID: -4216859302048453862, guid: 18a0ecb4e3858424ebf98cbf9e0ff486,
        type: 3}
      propertyPath: m_LocalEulerAnglesHint.x
      value: 0
      objectReference: {fileID: 0}
    - target: {fileID: -4216859302048453862, guid: 18a0ecb4e3858424ebf98cbf9e0ff486,
        type: 3}
      propertyPath: m_LocalEulerAnglesHint.y
      value: 0
      objectReference: {fileID: 0}
    - target: {fileID: -4216859302048453862, guid: 18a0ecb4e3858424ebf98cbf9e0ff486,
        type: 3}
      propertyPath: m_LocalEulerAnglesHint.z
      value: 0
      objectReference: {fileID: 0}
    - target: {fileID: -4216859302048453862, guid: 18a0ecb4e3858424ebf98cbf9e0ff486,
        type: 3}
      propertyPath: m_LocalScale.x
      value: 465.05087
      objectReference: {fileID: 0}
    - target: {fileID: -4216859302048453862, guid: 18a0ecb4e3858424ebf98cbf9e0ff486,
        type: 3}
      propertyPath: m_LocalScale.y
      value: 465.05087
      objectReference: {fileID: 0}
    - target: {fileID: -4216859302048453862, guid: 18a0ecb4e3858424ebf98cbf9e0ff486,
        type: 3}
      propertyPath: m_LocalScale.z
      value: 465.05087
      objectReference: {fileID: 0}
    - target: {fileID: -1504981713932161579, guid: 18a0ecb4e3858424ebf98cbf9e0ff486,
        type: 3}
      propertyPath: m_Materials.Array.data[0]
      value: 
      objectReference: {fileID: 2100000, guid: 65d9f8874c79b594ba6a4718e0221696, type: 2}
    - target: {fileID: -1504981713932161579, guid: 18a0ecb4e3858424ebf98cbf9e0ff486,
        type: 3}
      propertyPath: m_Materials.Array.data[2]
      value: 
      objectReference: {fileID: 2100000, guid: 6512b7fbf732b3c42bb42f5f8216dc4e, type: 2}
    - target: {fileID: -1504981713932161579, guid: 18a0ecb4e3858424ebf98cbf9e0ff486,
        type: 3}
      propertyPath: m_Materials.Array.data[1]
      value: 
      objectReference: {fileID: 2100000, guid: b253261b3fc6ca84ba42fe7e75585aea, type: 2}
    - target: {fileID: -927199367670048503, guid: 18a0ecb4e3858424ebf98cbf9e0ff486,
        type: 3}
      propertyPath: m_Name
      value: Cupcake
      objectReference: {fileID: 0}
    - target: {fileID: -927199367670048503, guid: 18a0ecb4e3858424ebf98cbf9e0ff486,
        type: 3}
      propertyPath: m_Layer
      value: 9
      objectReference: {fileID: 0}
    m_RemovedComponents: []
  m_SourcePrefab: {fileID: 100100000, guid: 18a0ecb4e3858424ebf98cbf9e0ff486, type: 3}
--- !u!4 &5509910241742933372 stripped
Transform:
  m_CorrespondingSourceObject: {fileID: -4216859302048453862, guid: 18a0ecb4e3858424ebf98cbf9e0ff486,
    type: 3}
  m_PrefabInstance: {fileID: 652343420840732262}
  m_PrefabAsset: {fileID: 0}
